<svg width="236" height="236" viewBox="0 0 236 236" fill="none" xmlns="http://www.w3.org/2000/svg">
<g clip-path="url(#clip0_436_58)">
<path d="M71.5001 92.999C92.0287 92.999 71.4865 92.999 143 92.999C143 117.838 143 145.539 143 164.499C143 203.987 110.988 235.999 71.5001 235.999C32.0116 235.999 0 203.987 0 164.499C0 125.01 32.0116 92.999 71.5001 92.999Z" fill="#0069FF"/>
<path d="M164.5 142.999C143.971 142.999 164.513 142.999 93 142.999C93 118.158 93 90.4579 93 71.4988C93 32.0091 125.012 -0.00195312 164.5 -0.00195312C203.988 -0.00195312 236 32.0091 236 71.4988C236 110.987 203.988 142.999 164.5 142.999Z" fill="#22284F"/>
</g>
<defs>
<clipPath id="clip0_436_58">
<rect width="236" height="236" fill="white"/>
</clipPath>
</defs>
</svg>
