<svg width="411" height="538" viewBox="0 0 411 538" fill="none" xmlns="http://www.w3.org/2000/svg">
<g clip-path="url(#clip0_436_46)">
<path d="M160.772 152.023C210.846 152.023 251.438 192.625 251.438 242.709C251.438 292.793 210.846 333.393 160.772 333.393" fill="#E83962"/>
<path d="M342.006 348.989C342.006 399.254 301.488 439.999 251.508 439.999C201.528 439.999 161.01 399.254 161.01 348.989" fill="#003B9D"/>
<path d="M1 537.998V387.998C1 349.339 32.3401 317.998 71 317.998C109.66 317.998 141 349.339 141 387.998V537.998" fill="#22284F"/>
<path d="M272 -0.000976562H411V328.999H272V-0.000976562Z" fill="#0069FF"/>
<path d="M71.4999 154.998C110.988 154.998 143 187.009 143 226.498C143 265.987 110.988 297.999 71.4999 297.999C32.0116 297.999 0 265.987 0 226.498C0 187.009 32.0116 154.998 71.4999 154.998Z" fill="#003B9D"/>
</g>
<defs>
<clipPath id="clip0_436_46">
<rect width="411" height="538" fill="white"/>
</clipPath>
</defs>
</svg>
